interval,layer,Sv_max,Sv_mean,Sv_min,abc,depth_max,depth_mean,depth_min,excluded_samples,height_mean,integrated_samples,lat_end,lat_start,lon_end,lon_start,mean_exclude_above,mean_exclude_below,nasc,num_filtered_pings,num_integrated_pings,num_valid_pings,ping_end,ping_start,range_max,range_mean,range_min,thickness_mean,timestamp_end,timestamp_start,valid_samples
1,2,-41.35135566401803,-66.99159653128413,0,1.99362522364155e-06,24.824960064084735,19.932800076436244,15.040640088787768,34545,9.972479974821908,51039,57.026779278866336,57.03506107843137,168.32780168268636,168.32622725490197,10,71.66426771625427,89.6800099817323,0,963,963,962,0,19.944959949643817,15.052799961995325,10.16063997434685,9.972479974821908,2014-07-05 20:37:05.084629,2014-07-05 20:29:04.087900,51039
1,3,-43.609742075199435,-67.91340418480652,0,1.6123627433766464e-06,34.79744003890664,29.90528005125815,25.013120063609676,40470,9.972479974821908,51039,57.026779278866336,57.03506107843137,168.32780168268636,168.32622725490197,10,71.66426771625427,72.52953323697972,0,963,963,962,0,29.917439924465725,25.02527993681723,20.13311994916876,9.972479974821908,2014-07-05 20:37:05.084629,2014-07-05 20:29:04.087900,51039
1,4,-48.70906140820732,-72.03712067035583,0,6.2386569568165e-07,44.76992001372855,39.87776002608006,34.985600038431585,39937,9.972479974821908,51039,57.026779278866336,57.03506107843137,168.32780168268636,168.32622725490197,10,71.66426771625427,28.063590464508554,0,963,963,962,0,39.889919899287634,34.99775991163914,30.105599923990667,9.972479974821908,2014-07-05 20:37:05.084629,2014-07-05 20:29:04.087900,51039
1,5,-50.39694025022979,-70.02022335980047,0,9.926150071430738e-07,54.74239998855046,49.850240000901955,44.95808001325349,32384,9.972479974821908,51039,57.026779278866336,57.03506107843137,168.32780168268636,168.32622725490197,10,71.66426771625427,44.65118252567482,0,963,963,962,0,49.86239987410954,44.97023988646104,40.078079898812575,9.972479974821908,2014-07-05 20:37:05.084629,2014-07-05 20:29:04.087900,51039
1,6,-51.385318981981044,-67.6806329535316,0,1.701139298868113e-06,64.71487996337237,59.822719975723885,54.9305599880754,24884,9.972479974821908,51039,57.026779278866336,57.03506107843137,168.32780168268636,168.32622725490197,10,71.66426771625427,76.52300316713847,0,963,963,962,0,59.83487984893145,54.94271986128297,50.050559873634484,9.972479974821908,2014-07-05 20:37:05.084629,2014-07-05 20:29:04.087900,51039
1,7,-51.69493925055943,-64.98941241812288,0,3.2209191337570376e-06,74.87551993771922,69.88927995030826,64.90303996289731,16575,10.16063997434685,52002,57.026779278866336,57.03506107843137,168.32780168268636,168.32622725490197,10,71.66426771625427,144.8878438335904,0,963,963,962,0,69.9955198232783,65.00927983586735,60.02303984845639,10.16063997434685,2014-07-05 20:37:05.084629,2014-07-05 20:29:04.087900,52002
1,8,-50.743018255625,-64.94873743029879,0,4.995443512973309e-07,76.94527993249358,75.76128490169064,75.06367993724416,45566,1.5611613667749573,7990,57.026779278866336,57.03506107843137,168.32780168268636,168.32622725490197,10,71.66426771625427,22.471195628651124,0,963,963,962,0,72.06527981805266,70.88128478724973,70.18367982280324,1.5611613667749573,2014-07-05 20:37:05.084629,2014-07-05 20:29:04.087900,51039
2,2,-38.59883832600694,-63.00579831179137,0,4.991411114322737e-06,24.824960064084735,19.932800076436244,15.040640088787768,25480,9.972479974821908,54590,57.01847173268806,57.026765657061404,168.32917239273598,168.3278056890996,10,72.1767795951621,224.53056534755981,0,1030,1030,1992,963,19.944959949643817,15.052799961995326,10.16063997434685,9.972479974821908,2014-07-05 20:45:40.088089,2014-07-05 20:37:05.584629,54590
2,3,-39.40150720540687,-68.06150795697334,0,1.5583046880093735e-06,34.79744003890664,29.90528005125815,25.013120063609676,41646,9.972479974821908,54590,57.01847173268806,57.026765657061404,168.32917239273598,168.3278056890996,10,72.1767795951621,70.09781894713197,0,1030,1030,1992,963,29.917439924465725,25.02527993681723,20.13311994916876,9.972479974821908,2014-07-05 20:45:40.088089,2014-07-05 20:37:05.584629,54590
2,4,-48.429780599798605,-72.48313452854883,0,5.629757913349055e-07,44.76992001372855,39.87776002608005,34.985600038431585,43328,9.972479974821908,54590,57.01847173268806,57.026765657061404,168.32917239273598,168.3278056890996,10,72.1767795951621,25.32455648517896,0,1030,1030,1992,963,39.889919899287634,34.99775991163913,30.105599923990667,9.972479974821908,2014-07-05 20:45:40.088089,2014-07-05 20:37:05.584629,54590
2,5,-49.610617652691275,-69.99161444051514,0,9.991753903656156e-07,54.74239998855046,49.850240000901955,44.95808001325349,35723,9.972479974821908,54590,57.01847173268806,57.026765657061404,168.32917239273598,168.3278056890996,10,72.1767795951621,44.94629076663442,0,1030,1030,1992,963,49.86239987410954,44.97023988646104,40.078079898812575,9.972479974821908,2014-07-05 20:45:40.088089,2014-07-05 20:37:05.584629,54590
2,6,-51.934960821190955,-68.9172638886952,0,1.2796075210270814e-06,64.71487996337237,59.82271997572387,54.9305599880754,32799,9.972479974821908,54590,57.01847173268806,57.026765657061404,168.32917239273598,168.3278056890996,10,72.1767795951621,57.56107712601912,0,1030,1030,1992,963,59.83487984893145,54.94271986128295,50.050559873634484,9.972479974821908,2014-07-05 20:45:40.088089,2014-07-05 20:37:05.584629,54590
2,7,-50.08494655888647,-65.09161586240539,0,3.1460054952138773e-06,74.87551993771922,69.88927995030824,64.90303996289731,17809,10.16063997434685,55620,57.01847173268806,57.026765657061404,168.32917239273598,168.3278056890996,10,72.1767795951621,141.51797482679336,0,1030,1030,1992,963,69.9955198232783,65.00927983586732,60.02303984845639,10.16063997434685,2014-07-05 20:45:40.088089,2014-07-05 20:37:05.584629,55620
2,8,-49.35906027247394,-62.26398280466893,0,1.2316262503171329e-06,77.5097599310684,76.01936039982468,75.06367993724416,45445,2.07432698505409,11355,57.01847173268806,57.026765657061404,168.32917239273598,168.3278056890996,10,72.1767795951621,55.40271717692869,0,1030,1030,1992,963,72.62975981662748,71.13936028538376,70.18367982280324,2.07432698505409,2014-07-05 20:45:40.088089,2014-07-05 20:37:05.584629,54590
3,2,-38.529521787592856,-61.10999240470739,0,7.723318277001068e-06,24.824960064084735,19.93280007643626,15.040640088787768,23336,9.972479974821908,64713,57.01017628712761,57.018464306944544,168.33066660066046,168.3291740429012,10,72.59217309678411,347.4209956615619,0,1221,1221,3213,1993,19.944959949643817,15.05279996199534,10.16063997434685,9.972479974821908,2014-07-05 20:55:50.594818,2014-07-05 20:45:40.588089,64713
3,3,-40.116015266326876,-63.788367765244026,0,4.168371293646707e-06,34.79744003890664,29.905280051258163,25.013120063609676,31656,9.972479974821908,64713,57.01017628712761,57.018464306944544,168.33066660066046,168.3291740429012,10,72.59217309678411,187.5074486362012,0,1221,1221,3213,1993,29.917439924465725,25.025279936817245,20.13311994916876,9.972479974821908,2014-07-05 20:55:50.594818,2014-07-05 20:45:40.588089,64713
3,4,-50.650043152984324,-69.33640172433812,0,1.1618846133882151e-06,44.76992001372855,39.877760026080075,34.985600038431585,42095,9.972479974821908,64713,57.01017628712761,57.018464306944544,168.33066660066046,168.3291740429012,10,72.59217309678411,52.265502307373936,0,1221,1221,3213,1993,39.889919899287634,34.99775991163916,30.105599923990667,9.972479974821908,2014-07-05 20:55:50.594818,2014-07-05 20:45:40.588089,64713
3,5,-49.548347483491696,-67.24256268737068,0,1.881684918772284e-06,54.74239998855046,49.850240000902,44.95808001325349,32594,9.972479974821908,64713,57.01017628712761,57.018464306944544,168.33066660066046,168.3291740429012,10,72.59217309678411,84.64455620687633,0,1221,1221,3213,1993,49.86239987410954,44.97023988646108,40.078079898812575,9.972479974821908,2014-07-05 20:55:50.594818,2014-07-05 20:45:40.588089,64713
3,6,-50.7107472454159,-66.65357535395276,0,2.1549918771465665e-06,64.71487996337237,59.822719975723885,54.9305599880754,30414,9.972479974821908,64713,57.01017628712761,57.018464306944544,168.33066660066046,168.3291740429012,10,72.59217309678411,96.9388282016459,0,1221,1221,3213,1993,59.83487984893145,54.94271986128297,50.050559873634484,9.972479974821908,2014-07-05 20:55:50.594818,2014-07-05 20:45:40.588089,64713
3,7,-50.03359505152102,-64.26179833917612,0,3.808388360880425e-06,74.87551993771922,69.88927995030825,64.90303996289731,20199,10.16063997434685,65934,57.01017628712761,57.018464306944544,168.33066660066046,168.3291740429012,10,72.59217309678411,171.31419795854129,0,1221,1221,3213,1993,69.9955198232783,65.00927983586733,60.02303984845639,10.16063997434685,2014-07-05 20:55:50.594818,2014-07-05 20:45:40.588089,65934
3,8,-48.54769036228586,-61.73755913268555,0,1.6684335684689962e-06,77.88607993011829,76.22092275980373,75.06367993724416,51337,2.4892288880641957,16153,57.01017628712761,57.018464306944544,168.33066660066046,168.3291740429012,10,72.59217309678411,75.0517887212783,0,1221,1221,3213,1993,73.00607981567737,71.34092264536281,70.18367982280324,2.4892288880641957,2014-07-05 20:55:50.594818,2014-07-05 20:45:40.588089,64713
4,2,-36.78606918338987,-64.26116903737525,0,3.7384043138641374e-06,24.824960064084735,19.932800076436244,15.040640088787768,33486,9.972479974821908,64607,57.00187940128212,57.010169341086055,168.33212797735038,168.33066891472848,10,72.9648373778283,168.16607866281996,0,1219,1219,4432,3214,19.944959949643817,15.052799961995326,10.16063997434685,9.972479974821908,2014-07-05 21:06:00.081549,2014-07-05 20:55:51.094818,64607
4,3,-41.669316176347635,-64.52685982223718,0,3.5165531892717106e-06,34.79744003890664,29.905280051258153,25.013120063609676,27884,9.972479974821908,64607,57.00187940128212,57.010169341086055,168.33212797735038,168.33066891472848,10,72.9648373778283,158.18646422377003,0,1219,1219,4432,3214,29.917439924465725,25.025279936817235,20.13311994916876,9.972479974821908,2014-07-05 21:06:00.081549,2014-07-05 20:55:51.094818,64607
4,4,-50.99664150253287,-66.21245451918745,0,2.385380809330502e-06,44.76992001372855,39.87776002608007,34.985600038431585,26108,9.972479974821908,64607,57.00187940128212,57.010169341086055,168.33212797735038,168.33066891472848,10,72.9648373778283,107.30250212236213,0,1219,1219,4432,3214,39.889919899287634,34.99775991163915,30.105599923990667,9.972479974821908,2014-07-05 21:06:00.081549,2014-07-05 20:55:51.094818,64607
4,5,-47.764950840353706,-64.35113834149662,0,3.66175546798812e-06,54.74239998855046,49.85024000090196,44.95808001325349,19736,9.972479974821908,64607,57.00187940128212,57.010169341086055,168.33212797735038,168.33066891472848,10,72.9648373778283,164.7181541573837,0,1219,1219,4432,3214,49.86239987410954,44.970239886461044,40.078079898812575,9.972479974821908,2014-07-05 21:06:00.081549,2014-07-05 20:55:51.094818,64607
4,6,-42.63310938509932,-64.72732237562033,0,3.3579245630821198e-06,64.71487996337237,59.822719975723885,54.9305599880754,21592,9.972479974821908,64607,57.00187940128212,57.010169341086055,168.33212797735038,168.33066891472848,10,72.9648373778283,151.05081173935463,0,1219,1219,4432,3214,59.83487984893145,54.94271986128297,50.050559873634484,9.972479974821908,2014-07-05 21:06:00.081549,2014-07-05 20:55:51.094818,64607
4,7,-38.05258151964718,-62.55367385093436,0,5.643566905223898e-06,74.87551993771922,69.88927995030826,64.90303996289731,19408,10.16063997434685,65826,57.00187940128212,57.010169341086055,168.33212797735038,168.33066891472848,10,72.9648373778283,253.86674004283753,0,1219,1219,4432,3214,69.9955198232783,65.00927983586735,60.02303984845639,10.16063997434685,2014-07-05 21:06:00.081549,2014-07-05 20:55:51.094818,65826
4,8,-51.01911719911675,-63.70817166317097,0,1.2175536054812053e-06,78.26239992916817,76.40557172701178,75.06367993724416,50727,2.859599795897514,18526,57.00187940128212,57.010169341086055,168.33212797735038,168.33066891472848,10,72.9648373778283,54.769681983357984,0,1219,1219,4432,3214,73.38239981472725,71.52557161257086,70.18367982280324,2.859599795897514,2014-07-05 21:06:00.081549,2014-07-05 20:55:51.094818,64607
5,2,-37.84835441361494,-66.93747013232431,0,2.018627380384709e-06,24.824960064084735,19.93280007643625,15.040640088787768,38950,9.972479974821908,49820,56.99518333333333,57.001872119736866,168.33253666666667,168.33213040453217,10,73.34841747283936,90.80469161181107,0,940,940,5372,4433,19.944959949643817,15.052799961995333,10.16063997434685,9.972479974821908,2014-07-05 21:13:50.085007,2014-07-05 21:06:00.581549,49820
5,3,-42.56758378375797,-63.079548041629955,0,4.907365085872513e-06,34.79744003890664,29.90528005125815,25.013120063609676,22530,9.972479974821908,49820,56.99518333333333,57.001872119736866,168.33253666666667,168.33213040453217,10,73.34841747283936,220.7498905341796,0,940,940,5372,4433,29.917439924465725,25.02527993681723,20.13311994916876,9.972479974821908,2014-07-05 21:13:50.085007,2014-07-05 21:06:00.581549,49820
5,4,-48.29566555261195,-65.33269020909553,0,2.921017453751606e-06,44.76992001372855,39.87776002608005,34.985600038431585,16490,9.972479974821908,49820,56.99518333333333,57.001872119736866,168.33253666666667,168.33213040453217,10,73.34841747283936,131.3972512500462,0,940,940,5372,4433,39.889919899287634,34.99775991163913,30.105599923990667,9.972479974821908,2014-07-05 21:13:50.085007,2014-07-05 21:06:00.581549,49820
5,5,-50.727721152225584,-64.4725567638507,0,3.5607993050556494e-06,54.74239998855046,49.85024000090195,44.95808001325349,13796,9.972479974821908,49820,56.99518333333333,57.001872119736866,168.33253666666667,168.33213040453217,10,73.34841747283936,160.17680426266088,0,940,940,5372,4433,49.86239987410954,44.97023988646103,40.078079898812575,9.972479974821908,2014-07-05 21:13:50.085007,2014-07-05 21:06:00.581549,49820
5,6,-51.03878295925276,-64.90839632216466,0,3.2207983917254332e-06,64.71487996337237,59.82271997572386,54.9305599880754,15205,9.972479974821908,49820,56.99518333333333,57.001872119736866,168.33253666666667,168.33213040453217,10,73.34841747283936,144.8824124483576,0,940,940,5372,4433,59.83487984893145,54.94271986128294,50.050559873634484,9.972479974821908,2014-07-05 21:13:50.085007,2014-07-05 21:06:00.581549,49820
5,7,-51.31743177265311,-65.06368381045817,0,3.1663045285956856e-06,74.87551993771922,69.88927995030822,64.90303996289731,17175,10.16063997434685,50760,56.99518333333333,57.001872119736866,168.33253666666667,168.33213040453217,10,73.34841747283936,142.43109405036284,0,940,940,5372,4433,69.9955198232783,65.0092798358673,60.02303984845639,10.16063997434685,2014-07-05 21:13:50.085007,2014-07-05 21:06:00.581549,50760
5,8,-51.927528349990524,-64.18889930627883,0,1.2361698497187364e-06,78.63871992821805,76.59604233801672,75.06367993724416,38384,3.2431577790458563,16202,56.99518333333333,57.001872119736866,168.33253666666667,168.33213040453217,10,73.34841747283936,55.6071036558199,0,940,940,5372,4433,73.75871981377713,71.7160422235758,70.18367982280324,3.2431577790458563,2014-07-05 21:13:50.085007,2014-07-05 21:06:00.581549,49820
